<?xml version="1.0" encoding="iso-8859-1"?>
<!-- Generator: Adobe Illustrator 19.0.0, SVG Export Plug-In . SVG Version: 6.00 Build 0)  -->
<svg version="1.1" id="Capa_1" xmlns="http://www.w3.org/2000/svg" xmlns:xlink="http://www.w3.org/1999/xlink" x="0px" y="0px"
	 viewBox="0 0 419.791 419.791" style="enable-background:new 0 0 419.791 419.791;" xml:space="preserve">
<g>
	<g>
		<path d="M347.408,93.498c-25.117-25.115-90.989,15.367-139.766,57.665l8.945,10.315c60.17-52.181,108.86-70.632,121.167-58.325
			c15.316,15.317-15.792,80.558-84.919,149.685c-69.129,69.127-134.368,100.234-149.683,84.92
			c-12.305-12.307,6.144-60.995,58.322-121.168l-10.315-8.945c-42.295,48.778-82.775,114.65-57.66,139.767
			c5.207,5.207,12.332,7.578,20.89,7.578c36.304-0.003,98.295-42.692,148.101-92.498
			C324.034,200.948,374.711,120.805,347.408,93.498z"/>
	</g>
</g>
<g>
	<g>
		<path d="M249.432,174.937c-0.691-1.722-2.057-3.091-3.779-3.785c-23.262-9.393-41.684-25.395-56.236-48.87
			c9.305-33.539-0.031-69.308-24.742-94.027C146.453,10.033,122.229-0.002,96.465,0C70.699,0,46.477,10.037,28.256,28.261
			C10.036,46.478,0.001,70.699,0.001,96.464c0,25.764,10.035,49.988,28.256,68.209c24.695,24.697,60.421,34.038,93.926,24.767
			c22.296,14.532,38.369,33.041,49.085,56.497c0.783,1.717,2.243,3.031,4.029,3.633c0.71,0.239,1.446,0.357,2.179,0.357
			c1.116,0,2.225-0.275,3.226-0.811c32.908-17.655,55.996-40.813,68.618-68.832C250.084,178.591,250.123,176.659,249.432,174.937z
			 M180.448,233.617c-12.158-23.46-30.16-42.745-53.594-57.393c-1.096-0.686-2.352-1.038-3.618-1.038
			c-0.683,0-1.369,0.102-2.038,0.311c-29.522,9.223-61.435,1.376-83.289-20.48c-15.642-15.642-24.257-36.436-24.257-58.554
			c0-22.117,8.615-42.909,24.257-58.547c0-0.002,0-0.002,0-0.002c15.642-15.645,36.437-24.26,58.556-24.262
			c22.117,0,42.912,8.614,58.554,24.255c21.847,21.854,29.694,53.775,20.48,83.306c-0.577,1.85-0.341,3.857,0.65,5.523
			c14.986,25.194,33.908,42.97,57.685,54.149C222.849,201.637,204.937,219.334,180.448,233.617z"/>
	</g>
</g>
<g>
	<g>
		<path d="M184.659,116.541c-3.504-1.396-7.474,0.312-8.87,3.814c-4.584,11.506-11.295,21.132-19.946,28.614
			c-2.852,2.466-3.164,6.777-0.698,9.629c1.35,1.562,3.253,2.362,5.166,2.362c1.582,0,3.173-0.546,4.463-1.662
			c10.322-8.928,18.295-20.328,23.699-33.888C189.869,121.907,188.161,117.937,184.659,116.541z"/>
	</g>
</g>
<g>
	<g>
		<path d="M104.942,147.376c-0.329-3.756-3.645-6.535-7.397-6.205c-6.32,0.553-12.57-0.321-18.587-2.603
			c-10.141-3.831-18.263-11.24-22.871-20.859c-1.63-3.4-5.705-4.837-9.107-3.207c-3.4,1.63-4.835,5.707-3.207,9.107
			c6.134,12.802,16.915,22.651,30.351,27.73c6.402,2.427,13.018,3.649,19.732,3.649c1.62,0,3.248-0.07,4.879-0.215
			C102.493,154.443,105.271,151.132,104.942,147.376z"/>
	</g>
</g>
<g>
	<g>
		<path d="M381.287,195.425c-14.701-14.7-32.101-25.429-51.715-31.889l-4.272,12.967c17.567,5.787,33.155,15.401,46.333,28.576
			c22.248,22.248,34.502,51.825,34.502,83.28s-12.252,61.03-34.502,83.275c-22.245,22.25-51.818,34.502-83.273,34.502
			c-31.456,0-61.032-12.254-83.28-34.502c-13.065-13.066-22.637-28.52-28.45-45.933l-12.95,4.325
			c6.49,19.439,17.171,36.687,31.746,51.263c24.829,24.827,57.832,38.501,92.935,38.501c35.103,0,68.105-13.672,92.928-38.501
			c24.829-24.825,38.502-57.827,38.502-92.93S406.116,220.254,381.287,195.425z"/>
	</g>
</g>
<g>
	<g>
		<path d="M349.192,227.533c-12.89-12.899-29.199-21.236-47.162-24.108l-2.156,13.483c15.102,2.415,28.817,9.426,39.661,20.279
			c28.218,28.22,28.218,74.134,0,102.354c-28.218,28.218-74.132,28.218-102.352,0c-10.871-10.873-17.889-24.61-20.294-39.723
			l-13.484,2.145c2.86,17.976,11.203,34.309,24.124,47.232c16.771,16.771,38.801,25.156,60.831,25.156s44.061-8.387,60.831-25.156
			C382.731,315.651,382.731,261.074,349.192,227.533z"/>
	</g>
</g>
<g>
	<g>
		<path d="M44.357,83.809h-0.79c-3.77,0-6.827,3.057-6.827,6.827c0,3.77,3.057,6.827,6.827,6.827h0.79
			c3.77,0,6.827-3.057,6.827-6.827C51.184,86.866,48.127,83.809,44.357,83.809z"/>
	</g>
</g>
<g>
</g>
<g>
</g>
<g>
</g>
<g>
</g>
<g>
</g>
<g>
</g>
<g>
</g>
<g>
</g>
<g>
</g>
<g>
</g>
<g>
</g>
<g>
</g>
<g>
</g>
<g>
</g>
<g>
</g>
</svg>
